Name,Division,Age,Sex,WeightClassKg,Best3SquatKg,Best3BenchKg,Best3DeadliftKg,TotalKg,Equipment,Event,Place
Amanda Lopez,F-T1,14,F,52,80,37.5,75,192.5,Single-ply,SBD,1
Lindsey Suson,F-T1,14,F,90,115,60,115,290,Single-ply,SBD,2
Anglea Rodriguez,F-T1,15,F,56,97.5,45,115,257.5,Single-ply,SBD,1
Markie Abbott,F-T1,15,F,67.5,115,62.5,127.5,305,Single-ply,SBD,1
Lisa Garza,F-T1,15,F,90,182.5,70,175,427.5,Single-ply,SBD,1
Brittnay Vessels,F-T1,14,F,90,,67.5,,67.5,Single-ply,B,1
Stephanie Suarez,F-T2,16,F,48,85,47.5,97.5,230,Single-ply,SBD,1
Jennifer Hernandez,F-T2,17,F,52,110,45,112.5,267.5,Single-ply,SBD,1
Vanessa Cisneros,F-T2,16,F,52,102.5,42.5,117.5,262.5,Single-ply,SBD,2
Victoria Franklin,F-T2,17,F,56,115,50,130,295,Single-ply,SBD,1
Alma Rodriguez,F-T2,16,F,60,122.5,62.5,132.5,317.5,Single-ply,SBD,1
Bianca Lancerio,F-T2,17,F,60,110,65,127.5,302.5,Single-ply,SBD,2
Breley Seay,F-T2,17,F,67.5,112.5,65,142.5,320,Single-ply,SBD,1
Ashleigh Andrews,F-T2,16,F,75,142.5,67.5,160,370,Single-ply,SBD,1
Alexis Contreras,F-T2,16,F,90,175,95,157.5,427.5,Single-ply,SBD,1
Jvonne Avila,F-T2,16,F,90+,232.5,80,190,502.5,Single-ply,SBD,1
Ryean Hernandez,F-T2,17,F,90+,135,87.5,205,427.5,Single-ply,SBD,2
Alex Bixby,F-T2,17,F,90+,157.5,67.5,137.5,362.5,Single-ply,SBD,3
Frances Martinez,F-T3,18,F,48,62.5,37.5,97.5,197.5,Single-ply,SBD,1
Chinaz Ghafoor,F-T3,18,F,52,115,57.5,117.5,290,Single-ply,SBD,1
Madalyn Allen,F-T3,18,F,60,142.5,65,140,347.5,Single-ply,SBD,1
Rachel Bryant,F-T3,18,F,82.5,120,72.5,145,337.5,Single-ply,SBD,1
MaRinda Cuff,F-T3,19,F,90+,182.5,85,122.5,390,Single-ply,SBD,1
Dionna Poole,F-Jr,22,F,75,90,60,120,270,Single-ply,SBD,1
Jade Dickens,F-O,36,F,90,147.5,92.5,137.5,377.5,Single-ply,SBD,1
Maria Helia Marrs,FR-M1,45,F,56,90,50,117.5,257.5,Raw,SBD,1
Chandra Armstead,F-M1,48,F,67.5,132.5,75,125,332.5,Single-ply,SBD,1
Valerie Engle,F-M2,53,F,67.5,90,47.5,117.5,255,Single-ply,SBD,1
Donovan Flores,M-T1,15,M,60,112.5,67.5,125,305,Single-ply,SBD,1
JJ Gonzales,M-T1,15,M,67.5,192.5,125,205,522.5,Single-ply,SBD,1
Miles Wilson,M-T1,15,M,82.5,212.5,112.5,212.5,537.5,Single-ply,SBD,1
Michael Garcia #5,M-T1,15,M,100,200,120,200,520,Single-ply,SBD,1
Michael Greer,MR-T1,15,M,125+,150,97.5,172.5,420,Raw,SBD,1
Arturo Cervantez,M-T2,17,M,75,187.5,120,197.5,505,Single-ply,SBD,1
Jose Perez #23,M-T2,17,M,82.5,220,140,182.5,542.5,Single-ply,SBD,1
James Johnson,M-T2,17,M,100,255,155,235,645,Single-ply,SBD,1
Jaime Menchaca,M-T2,16,M,100,185,135,185,505,Single-ply,SBD,2
Preston Turner,M-T2,17,M,110,320,245,267.5,832.5,Single-ply,SBD,1
Adam Aucoin,M-T2,17,M,110,270,147.5,222.5,640,Single-ply,SBD,2
Ty Lawless,M-T2,17,M,110,227.5,117.5,222.5,567.5,Single-ply,SBD,3
Josh Wallace #2,M-T2,17,M,110,227.5,130,182.5,540,Single-ply,SBD,4
Zachary Perez,M-T2,16,M,125,245,125,187.5,557.5,Single-ply,SBD,1
Jimmy Cupo,MR-T2,16,M,110,200,100,210,510,Raw,SBD,1
Michael Escamilla,MR-T2,17,M,110,125,80,160,365,Raw,SBD,2
Jeffery Garcia,MR-T2,16,M,125,142.5,125,167.5,435,Raw,SBD,1
Robert Kelley,MR-T2,17,M,125+,185,115,175,475,Raw,SBD,1
Anthony Hambric #1,M-T2,16,M,90,,110,,110,Single-ply,B,1
Jordan Jones #10,M-T3,18,M,75,200,155,215,570,Single-ply,SBD,1
Dominique Hardaway,M-T3,18,M,82.5,227.5,115,252.5,595,Single-ply,SBD,1
Matthew Thomas,M-T3,18,M,82.5,185,120,215,520,Single-ply,SBD,2
Joseph Walker,M-T3,18,M,82.5,145,122.5,172.5,440,Single-ply,SBD,3
Joshua Heimbecker,M-T3,19,M,82.5,145,,,,Single-ply,SBD,DQ
Chase Gaddy,M-T3,18,M,90,272.5,185,240,697.5,Single-ply,SBD,1
Robert Irving,M-T3,18,M,90,255,150,237.5,642.5,Single-ply,SBD,2
Stefan Arias,M-T3,18,M,90,250,155,232.5,637.5,Single-ply,SBD,3
Tyler Hudson,M-T3,18,M,125,235,155,167.5,557.5,Single-ply,SBD,1
Brad Podkulski,MR-T3,19,M,90,167.5,115,202.5,485,Raw,SBD,1
Rusty Burris,MR-T3,18,M,67.5,,140,,140,Raw,B,1
Lawrence Brite,MR-T3,18,M,82.5,,200,,200,Raw,B,1
Dion Turner,MR-T3,18,M,125+,,220,,220,Raw,B,1
Alexander Jowett,M-Jr,21,M,90,210,152.5,242.5,605,Single-ply,SBD,1
Cody Browder,M-Jr,20,M,100,240,,255,,Single-ply,SBD,DQ
CJ Jarmillo,M-Jr,20,M,125,295,170,272.5,737.5,Single-ply,SBD,1
Charles Wahlert,MR-Jr,22,M,60,125,85,140,350,Raw,SBD,1
Ramiro Espinosa,MR-Jr,21,M,82.5,190,147.5,232.5,570,Raw,SBD,1
Phillip Horsch,MR-Jr,20,M,82.5,135,115,165,415,Raw,SBD,2
Jason Briggs,MR-Jr,22,M,90,200,150,237.5,587.5,Raw,SBD,1
Howard Davison,MR-Jr,22,M,90,182.5,137.5,222.5,542.5,Raw,SBD,2
Jason Smith,MR-Jr,23,M,100,202.5,137.5,232.5,572.5,Raw,SBD,1
JC Wright,MR-Jr,23,M,110,250,145,267.5,662.5,Raw,SBD,1
J.J. Natal,MR-Jr,22,M,110,195,107.5,200,502.5,Raw,SBD,2
Chris Riley,MR-Jr,23,M,125,272.5,162.5,287.5,722.5,Raw,SBD,1
Jeremey King,MR-Jr,23,M,110,,190,,190,Raw,B,1
Shawn Frasquillo,M-O,24,M,67.5,172.5,142.5,215,530,Single-ply,SBD,1
Darell Dansby,M-O,36,M,67.5,140,97.5,147.5,385,Single-ply,SBD,2
Clint Strittmatter,M-O,34,M,75,,105,190,,Single-ply,SBD,DQ
Jim Barnett,M-O,38,M,82.5,210,150,235,595,Single-ply,SBD,1
Esteban Narvaez,M-O,25,M,82.5,142.5,,140,,Single-ply,SBD,DQ
Curt St. Romain,M-O,32,M,90,262.5,165,225,652.5,Single-ply,SBD,1
Kaiser Young,M-O,39,M,90,205,177.5,195,577.5,Single-ply,SBD,2
Mark Riebel,M-O,29,M,90,197.5,145,212.5,555,Single-ply,SBD,3
Steven Halloway,M-O,30,M,90,,150,237.5,,Single-ply,SBD,DQ
Chad Smith,M-O,30,M,100,287.5,205,272.5,765,Single-ply,SBD,1
Jack Reape,M-O,48,M,110,275,207.5,252.5,735,Single-ply,SBD,1
Steven Lucio,M-O,37,M,110,240,182.5,237.5,660,Single-ply,SBD,2
Henry Thomason,M-O,30,M,125+,410,155,242.5,807.5,Single-ply,SBD,1
Jesse Portillo,M-O,27,M,125+,265,185,202.5,652.5,Single-ply,SBD,2
Steven Lucio,M-O,37,M,110,,182.5,,182.5,Single-ply,B,1
Mike Womack #1,M-O,28,M,125+,,320,,320,Single-ply,B,1
Henry Thomason,M-O,30,M,125+,,155,,155,Single-ply,B,2
Brent Kim,MR-O,24,M,82.5,207.5,117.5,205,530,Raw,SBD,1
Abel Gomez,MR-O,25,M,90,185,122.5,212.5,520,Raw,SBD,1
Chris Martinez,MR-O,36,M,100,197.5,160,212.5,570,Raw,SBD,1
Jorin Slaybaugh,MR-O,28,M,100,175,130,185,490,Raw,SBD,2
Jerome Williams,MR-O,36,M,110,240,167.5,272.5,680,Raw,SBD,1
Franklin Millstid,MR-O,24,M,110,240,145,260,645,Raw,SBD,2
Michael Battaglino,MR-O,24,M,110,232.5,127.5,252.5,612.5,Raw,SBD,3
Brian Robert,MR-O,26,M,110,185,145,227.5,557.5,Raw,SBD,4
Allen Killingsworth,MR-O,39,M,110,187.5,125,227.5,540,Raw,SBD,5
Steven Rose,MR-O,30,M,125,217.5,150,247.5,615,Raw,SBD,1
Adam Nunnallee,MR-O,30,M,125,,,,,Raw,SBD,DQ
Doug Newcomer,M-M1,44,M,67.5,142.5,100,172.5,415,Single-ply,SBD,1
Kevin Jones #11,M-M1,47,M,67.5,180,120,185,485,Single-ply,SBD,1
Jack Reape,M-M1,48,M,110,275,207.5,252.5,735,Single-ply,SBD,1
Derell Bowie,M-M2,51,M,125+,280,150,227.5,657.5,Single-ply,SBD,1
Tracy Glawe,M-M1,47,M,110,,,,,Single-ply,SBD,DQ
Jeff Capps,M-M2,50,M,125,62.5,62.5,300,425,Single-ply,SBD,1
Bigo Walker,M-M1,48,M,125+,,115,,115,Single-ply,B,1
Gary Kaiser,M-M1,49,M,82.5,,165,,165,Single-ply,B,1
Derell Bowie,M-M2,51,M,125+,280,150,227.5,657.5,Single-ply,SBD,1
Keith James,M-M2,53,M,75,182.5,115,215,512.5,Single-ply,SBD,1
Russ Kitani,MR-M1,45,M,125,205,185,185,575,Raw,SBD,1
Ron Douglas,MR-M2,51,M,75,97.5,92.5,140,330,Raw,SBD,1
Lon Kilgore,MR-M2,51,M,82.5,142.5,102.5,167.5,412.5,Raw,SBD,1
Chuck Akers,MR-M2,50,M,100,185,117.5,207.5,510,Raw,SBD,1
Scott Brockelman,MR-M2,50,M,110,210,110,205,525,Raw,SBD,1
Bear Guinard,MR-M2,50,M,125+,135,142.5,182.5,460,Raw,SBD,1
Jeff Reirdon,MR-M1,45,M,90,,152.5,,152.5,Raw,B,1
John Solleder,MR-M1,48,M,125+,,105,,105,Raw,B,1
Bill Eaton,MR-M2,54,M,125,,132.5,,132.5,Raw,B,1
