Division,WeightClassKg,Place,Name,Team,BodyweightKg,Best3SquatKg,Best3BenchKg,Best3DeadliftKg,TotalKg,Equipment,Event,Sex
Boys,51.71,1,Exxon Pantaleon,Krum,51.07,113.4,63.5,145.15,322.05,Single-ply,SBD,M
Boys,51.71,2,Danny Rivera,Ponder,49.26,122.47,61.23,122.47,306.17,Single-ply,SBD,M
Boys,51.71,3,Chris Bowling,Blue Ridge,50.08,102.06,70.31,113.4,285.76,Single-ply,SBD,M
Boys,51.71,4,Ryan Slagle,Pottsboro,50.44,113.4,58.97,108.86,281.23,Single-ply,SBD,M
Boys,51.71,5,Jake Hefton,Sherman,50.53,90.72,49.9,122.47,263.08,Single-ply,SBD,M
Boys,51.71,6,Kenneth Neskorik,Aubrey,50.53,102.06,47.63,104.33,254.01,Single-ply,SBD,M
Boys,51.71,7,Brendan Collum,Sadler S & S Cons,51.17,92.99,47.63,102.06,242.67,Single-ply,SBD,M
Boys,55.79,8,Cody Crowe,Whitesboro,51.89,72.57,40.82,92.99,206.38,Single-ply,SBD,M
Boys,51.71,DQ,Derek Thacker,Valley View,48.72,95.25,,,,Single-ply,SBD,M
Boys,51.71,DQ,Tanner Heathcock,Bells,49.9,65.77,,,,Single-ply,SBD,M
Boys,51.71,DQ,Joshua Wilson,Bonham,48.9,,,,,Single-ply,SBD,M
Boys,51.71,DQ,Logan Derichweiler,Howe,49.26,,,,,Single-ply,SBD,M
Boys,59.87,1,Jace Pallan,Celeste,55.97,154.22,88.45,181.44,424.11,Single-ply,SBD,M
Boys,55.79,2,Russell Wilcox,Leonard,54.7,163.29,65.77,165.56,394.63,Single-ply,SBD,M
Boys,55.79,3,Sebastian Guerra,Pilot Point,55.79,158.76,77.11,151.95,387.82,Single-ply,SBD,M
Boys,55.79,4,Erik Torres,Celina,55.34,136.08,92.99,140.61,369.68,Single-ply,SBD,M
Boys,55.79,5,Lane Morgan,Van Alstyne,55.43,102.06,72.57,147.42,322.05,Single-ply,SBD,M
Boys,55.79,6,Raymond Bhikhai,Pilot Point,55.7,131.54,52.16,136.08,319.78,Single-ply,SBD,M
Boys,55.79,7,Baldemar Carbajal,Sherman,52.62,102.06,70.31,122.47,294.84,Single-ply,SBD,M
Boys,59.87,8,Dylan Babbitt,Bells,55.88,102.06,54.43,127.01,283.5,Single-ply,SBD,M
Boys,55.79,9,Bailey Belcher,Gunter,54.88,106.59,63.5,111.13,281.23,Single-ply,SBD,M
Boys,55.79,10,Koll Bickerstaff,Sherman,55.7,88.45,54.43,113.4,256.28,Single-ply,SBD,M
Boys,55.79,DQ,Jacob Grubisa,Farmersville,52.62,113.4,,,,Single-ply,SBD,M
Boys,55.79,DQ,Jose Oliveira,Paradise,53.98,,,,,Single-ply,SBD,M
Boys,59.87,1,Kyle Garner,Gunter,58.79,165.56,97.52,165.56,428.64,Single-ply,SBD,M
Boys,59.87,2,Gio Soto,Leonard,59.33,138.35,86.18,151.95,376.48,Single-ply,SBD,M
Boys,67.13,3,Brent Chaney,Whitesboro,60.06,140.61,63.5,154.22,358.34,Single-ply,SBD,M
Boys,59.87,4,Danny Nguyen,Whitesboro,57.79,129.27,74.84,151.95,356.07,Single-ply,SBD,M
Boys,59.87,5,Austin Caldwell,Callisburg,57.97,138.35,70.31,127.01,335.66,Single-ply,SBD,M
Boys,59.87,6,Alex Montoya,Blue Ridge,57.97,131.54,70.31,124.74,326.59,Single-ply,SBD,M
Boys,59.87,7,Brad Presson,Tom Bean,58.51,113.4,72.57,136.08,322.05,Single-ply,SBD,M
Boys,59.87,8,Marcus Sampson,Ponder,59.51,122.47,61.23,129.27,312.98,Single-ply,SBD,M
Boys,59.87,9,Lane Serna,Krum,56.97,117.93,61.23,122.47,301.64,Single-ply,SBD,M
Boys,59.87,10,Justin Keeton,Anna,59.51,102.06,61.23,131.54,294.84,Single-ply,SBD,M
Boys,59.87,11,Dylan Doughty,Valley View,59.15,83.91,54.43,90.72,229.06,Single-ply,SBD,M
Boys,59.87,DQ,Chase Smith,Van Alstyne,58.06,,,,,Single-ply,SBD,M
Boys,59.87,DQ,Kordan Ward,Callisburg,57.7,,,,,Single-ply,SBD,M
Boys,59.87,DQ,Clay Hobbs,Howe,58.24,133.81,,,,Single-ply,SBD,M
Boys,59.87,DQ,Josh Beck,Howe,58.15,122.47,,,,Single-ply,SBD,M
Boys,67.13,1,Stephen Steele,Pottsboro,65.86,190.51,129.27,190.51,510.29,Single-ply,SBD,M
Boys,67.13,2,Ty Slaughter,Whitesboro,66.32,188.24,113.4,204.12,505.76,Single-ply,SBD,M
Boys,67.13,3,Ramon Fierro,Howe,67.13,188.24,90.72,217.72,496.68,Single-ply,SBD,M
Boys,67.13,4,Jonathan Juarez,Celina,62.14,190.51,97.52,199.58,487.61,Single-ply,SBD,M
Boys,67.13,5,Kelton Dethloff,Paradise,62.87,192.78,83.91,192.78,469.47,Single-ply,SBD,M
Boys,67.13,6,Chris Stephens,Sherman,66.5,192.78,88.45,188.24,469.47,Single-ply,SBD,M
Boys,67.13,7,Kristof Pewitt,Paradise,63.05,181.44,106.59,170.1,458.13,Single-ply,SBD,M
Boys,67.13,8,Michael Vest,Celina,66.13,181.44,102.06,172.37,455.86,Single-ply,SBD,M
Boys,67.13,9,Stormy Box,Pilot Point,66.68,156.49,92.99,165.56,415.04,Single-ply,SBD,M
Boys,67.13,10,Chris Prosser,Gunter,63.78,147.42,104.33,161.03,412.77,Single-ply,SBD,M
Boys,67.13,11,Romario Hernandez,Krum,66.68,158.76,90.72,163.29,412.77,Single-ply,SBD,M
Boys,67.13,12,Tyler Nicholson,Howe,66.41,158.76,79.38,167.83,405.97,Single-ply,SBD,M
Boys,67.13,13,Daylan Lott,Celina,66.95,136.08,113.4,156.49,405.97,Single-ply,SBD,M
Boys,67.13,14,Kaleb Beck,Howe,61.05,147.42,74.84,179.17,401.43,Single-ply,SBD,M
Boys,67.13,15,Jacob Kemp,Bonham,65.41,158.76,83.91,158.76,401.43,Single-ply,SBD,M
Boys,67.13,16,Jake Haker,Van Alstyne,66.59,149.69,81.65,167.83,399.16,Single-ply,SBD,M
Boys,67.13,17,Johnny Amaro,Celeste,61.87,115.67,52.16,133.81,301.64,Single-ply,SBD,M
Boys,67.13,18,Martin Mijares,Bells,60.78,115.67,70.31,113.4,299.37,Single-ply,SBD,M
Boys,67.13,DQ,Tristan Coglon,Bells,64.32,,,,,Single-ply,SBD,M
Boys,67.13,DQ,Tyler Williams,Aubrey,62.41,,,,,Single-ply,SBD,M
Boys,74.84,DQ,Rickey Lewis,Celeste,67.22,,,,,Single-ply,SBD,M
Boys,67.13,DQ,Grayson Cobb,Paradise,61.51,,,,,Single-ply,SBD,M
Boys,67.13,DQ,Savon Miles,Princeton,67.13,,,,,Single-ply,SBD,M
Boys,67.13,DQ,Trent Nolan,Sadler S & S Cons,65.23,145.15,,,,Single-ply,SBD,M
Boys,74.84,1,James Jackson #4,Callisburg,73.21,197.31,120.2,235.87,553.38,Single-ply,SBD,M
Boys,74.84,2,Joaquin Lopez,Howe,71.58,222.26,111.13,215.46,548.85,Single-ply,SBD,M
Boys,82.1,3,Brice Chaney,Whitesboro,74.93,199.58,113.4,235.87,548.85,Single-ply,SBD,M
Boys,74.84,4,Foster Frisk,Celina,73.57,190.51,111.13,199.58,501.22,Single-ply,SBD,M
Boys,74.84,5,Jordon Jones,Sherman,74.3,192.78,92.99,213.19,498.95,Single-ply,SBD,M
Boys,74.84,6,Austin Vaden,Celina,72.21,195.04,120.2,176.9,492.15,Single-ply,SBD,M
Boys,74.84,7,Tanner Johnson,Whitesboro,71.67,190.51,102.06,197.31,489.88,Single-ply,SBD,M
Boys,74.84,8,Jarrett Wilson,Pilot Point,74.84,185.97,140.61,158.76,485.34,Single-ply,SBD,M
Boys,74.84,9,Jody Price,Callisburg,71.67,170.1,99.79,206.38,476.27,Single-ply,SBD,M
Boys,74.84,10,Chase Pinion,Anna,72.76,158.76,113.4,181.44,453.59,Single-ply,SBD,M
Boys,74.84,11,Keenan Holden,Pottsboro,74.3,170.1,102.06,181.44,453.59,Single-ply,SBD,M
Boys,74.84,12,Matthew Jelen,Krum,72.39,167.83,106.59,174.63,449.06,Single-ply,SBD,M
Boys,74.84,13,Cody Woolsey,Whitesboro,70.49,161.03,83.91,179.17,424.11,Single-ply,SBD,M
Boys,74.84,14,Mark Steinhoff,Aubrey,73.57,145.15,97.52,181.44,424.11,Single-ply,SBD,M
Boys,74.84,15,Terry Lawrence,Van Alstyne,70.31,158.76,83.91,163.29,405.97,Single-ply,SBD,M
Boys,74.84,16,Dakota Jimenez,Paradise,69.4,142.88,99.79,158.76,401.43,Single-ply,SBD,M
Boys,74.84,17,Brandon Price,Pilot Point,73.75,154.22,86.18,154.22,394.63,Single-ply,SBD,M
Boys,74.84,18,Adam White,Van Alstyne,73.84,136.08,83.91,167.83,387.82,Single-ply,SBD,M
Boys,74.84,19,Clay Kelley,Aubrey,69.85,129.27,86.18,158.76,374.21,Single-ply,SBD,M
Boys,74.84,20,Triston Pryor,Van Alstyne,70.22,138.35,77.11,147.42,362.87,Single-ply,SBD,M
Boys,74.84,21,Jacob Baker #1,Pottsboro,70.22,136.08,83.91,142.88,362.87,Single-ply,SBD,M
Boys,74.84,22,Caleb Hough,Howe,71.03,133.81,81.65,145.15,360.61,Single-ply,SBD,M
Boys,74.84,23,Jaret Keeton,Anna,70.4,136.08,63.5,158.76,358.34,Single-ply,SBD,M
Boys,74.84,24,Patton Lyons,Pottsboro,73.48,129.27,68.04,136.08,333.39,Single-ply,SBD,M
Boys,74.84,25,Charlie Overbey,Howe,69.67,122.47,81.65,127.01,331.12,Single-ply,SBD,M
Boys,74.84,DQ,Christian McCormick,Paradise,69.94,,,,,Single-ply,SBD,M
Boys,74.84,DQ,Joshua Bejarano,Valley View,74.75,,,,,Single-ply,SBD,M
Boys,82.1,1,Brennan Sooter,Ponder,77.75,256.28,140.61,210.92,607.81,Single-ply,SBD,M
Boys,82.1,2,John Groff,Pilot Point,81.28,210.92,129.27,238.14,578.33,Single-ply,SBD,M
Boys,82.1,3,Stephen Duncan,Celina,80.83,190.51,120.2,215.46,526.17,Single-ply,SBD,M
Boys,89.81,4,JaKendrick Burns,Sherman,82.28,199.58,108.86,206.38,514.83,Single-ply,SBD,M
Boys,82.1,5,Clay McKenzie,Callisburg,81.19,183.7,124.74,197.31,505.76,Single-ply,SBD,M
Boys,82.1,6,Orlando Mejia,Sherman,79.56,181.44,138.35,181.44,501.22,Single-ply,SBD,M
Boys,82.1,7,Trent Williams,Princeton,80.1,183.7,106.59,174.63,464.93,Single-ply,SBD,M
Boys,82.1,8,Daniel Tarlton,Gunter,79.29,165.56,97.52,195.04,458.13,Single-ply,SBD,M
Boys,82.1,9,Chancey Hall,Aubrey,81.19,158.76,99.79,170.1,428.64,Single-ply,SBD,M
Boys,82.1,10,Chadd Perry,Sherman,76.57,156.49,102.06,167.83,426.38,Single-ply,SBD,M
Boys,82.1,11,Seth Skaggs,Pottsboro,80.29,156.49,113.4,149.69,419.57,Single-ply,SBD,M
Boys,82.1,12,Clark Sulivant,Sadler S & S Cons,78.38,129.27,102.06,181.44,412.77,Single-ply,SBD,M
Boys,82.1,13,Brady Smith,Howe,75.93,142.88,113.4,149.69,405.97,Single-ply,SBD,M
Boys,82.1,14,Garrett McLean,Bells,80.47,151.95,90.72,163.29,405.97,Single-ply,SBD,M
Boys,82.1,15,Magnum Sampson,Ponder,75.48,154.22,83.91,154.22,392.36,Single-ply,SBD,M
Boys,82.1,16,Anthony Aguilar,Anna,82.1,136.08,77.11,147.42,360.61,Single-ply,SBD,M
Boys,82.1,17,Anthony Jordan,Pottsboro,81.1,136.08,79.38,142.88,358.34,Single-ply,SBD,M
Boys,82.1,18,Dylan Shaw,Bells,78.29,133.81,68.04,142.88,344.73,Single-ply,SBD,M
Boys,82.1,19,Garrett Sullivan,Celeste,79.2,124.74,74.84,133.81,333.39,Single-ply,SBD,M
Boys,82.1,DQ,Brad Hull,Krum,79.02,,,,,Single-ply,SBD,M
Boys,89.81,1,Garrett Lansford,Anna,87.45,240.4,136.08,213.19,589.67,Single-ply,SBD,M
Boys,89.81,2,Sean Kyle,Anna,87.09,199.58,147.42,208.65,555.65,Single-ply,SBD,M
Boys,89.81,3,Freddie Roman,Pilot Point,82.64,195.04,151.95,195.04,542.04,Single-ply,SBD,M
Boys,89.81,4,Luis Erives,Sadler S & S Cons,83.1,190.51,122.47,229.06,542.04,Single-ply,SBD,M
Boys,89.81,5,Arnold Contreras,Leonard,82.92,213.19,117.93,188.24,519.36,Single-ply,SBD,M
Boys,99.79,6,Weston Jobe,Blue Ridge,89.9,190.51,113.4,185.97,489.88,Single-ply,SBD,M
Boys,89.81,7,Dalton Scott,Pilot Point,89.81,195.04,120.2,170.1,485.34,Single-ply,SBD,M
Boys,89.81,8,Calvin Stang,Aubrey,88.63,181.44,81.65,174.63,437.72,Single-ply,SBD,M
Boys,99.79,9,Noah Raney,Sherman,89.9,149.69,104.33,170.1,424.11,Single-ply,SBD,M
Boys,89.81,10,Tristan Torres,Sadler S & S Cons,86.82,140.61,68.04,142.88,351.53,Single-ply,SBD,M
Boys,89.81,DQ,Devin Jackson,Tom Bean,87.09,,,,,Single-ply,SBD,M
Boys,89.81,DQ,Jack VerHoef,Aubrey,88,,,,,Single-ply,SBD,M
Boys,89.81,DQ,Jeremiah Bottoms,Celina,89.72,258.55,172.37,,,Single-ply,SBD,M
Boys,99.79,1,Logan Teel,Princeton,98.79,226.8,127.01,235.87,589.67,Single-ply,SBD,M
Boys,99.79,2,Dawson Stewart,Howe,99.43,208.65,145.15,235.87,589.67,Single-ply,SBD,M
Boys,99.79,3,Taylor Edwards,Paradise,90.36,206.38,149.69,208.65,564.72,Single-ply,SBD,M
Boys,99.79,4,Thomas Morales,Whitesboro,95.89,222.26,136.08,206.38,564.72,Single-ply,SBD,M
Boys,99.79,5,James Kemp,Anna,93.71,215.46,124.74,215.46,555.65,Single-ply,SBD,M
Boys,99.79,6,Shawn Shugart,Callisburg,98.07,226.8,102.06,199.58,528.44,Single-ply,SBD,M
Boys,99.79,7,Adam Stapleton,Whitesboro,99.06,208.65,117.93,195.04,521.63,Single-ply,SBD,M
Boys,99.79,8,Alex Cole,Van Alstyne,90.08,176.9,129.27,197.31,503.49,Single-ply,SBD,M
Boys,99.79,9,Manny Semidey,Van Alstyne,91.9,163.29,113.4,188.24,464.93,Single-ply,SBD,M
Boys,99.79,10,Blake Burnette,Howe,92.17,174.63,95.25,174.63,444.52,Single-ply,SBD,M
Boys,99.79,11,Alex Quintana,Aubrey,90.26,170.1,83.91,181.44,435.45,Single-ply,SBD,M
Boys,99.79,12,Jd Patterson,Howe,90.45,142.88,111.13,158.76,412.77,Single-ply,SBD,M
Boys,99.79,13,Jordan Wright,Celeste,91.26,151.95,83.91,158.76,394.63,Single-ply,SBD,M
Boys,99.79,14,Jeremy Harolds,Celina,94.08,133.81,95.25,151.95,381.02,Single-ply,SBD,M
Boys,99.79,DQ,Joshua Melvin,Bells,99.7,,,,,Single-ply,SBD,M
Boys,99.79,DQ,Erby Higgins,Paradise,96.8,,,,,Single-ply,SBD,M
Boys,99.79,DQ,Justin Wagner,Ponder,98.25,156.49,,,,Single-ply,SBD,M
Boys,99.79,DQ,Nick Thompson #3,Ponder,97.07,,,,,Single-ply,SBD,M
Boys,99.79,DQ,Jerrille Hughes,Sherman,97.25,,,,,Single-ply,SBD,M
Boys,109.77,1,Chris Aivaliotis,Ponder,107.59,263.08,136.08,235.87,635.03,Single-ply,SBD,M
Boys,109.77,2,Riley Stottle,Pilot Point,109.32,210.92,172.37,204.12,587.4,Single-ply,SBD,M
Boys,109.77,3,Ethan Lawson,Sadler S & S Cons,103.06,213.19,124.74,226.8,564.72,Single-ply,SBD,M
Boys,109.77,4,Dylan Coffin,Krum,100.7,195.04,88.45,224.53,508.02,Single-ply,SBD,M
Boys,109.77,5,Sam Gillard,Anna,102.24,167.83,108.86,192.78,469.47,Single-ply,SBD,M
Boys,109.77,6,Zach Walton,Pottsboro,101.6,161.03,74.84,158.76,394.63,Single-ply,SBD,M
Boys,109.77,DQ,Connor Strocher,Pottsboro,108.68,,,,,Single-ply,SBD,M
Boys,109.77,DQ,Brandon Gober,Paradise,107.77,,,,,Single-ply,SBD,M
Boys,109.77,DQ,Blake Brown,Paradise,102.06,,,,,Single-ply,SBD,M
Boys,109.77,DQ,Dalton Benson,Celeste,107.5,,,,,Single-ply,SBD,M
Boys,109.77,DQ,Andrew Lee,Farmersville,103.6,,,,,Single-ply,SBD,M
Boys,109.77,DQ,Jake Cox,Whitesboro,103.42,,,,,Single-ply,SBD,M
Boys,124.74,1,Matt Poursoltani,Pilot Point,123.2,272.16,290.3,274.42,836.88,Single-ply,SBD,M
Boys,124.74,2,Scott Blair,Anna,113.85,249.48,167.83,226.8,644.1,Single-ply,SBD,M
Boys,124.74,3,Dillon Gage,Sadler S & S Cons,118.57,249.48,172.37,215.46,637.3,Single-ply,SBD,M
Boys,124.74,4,Justin Lawler,Pottsboro,110.4,226.8,158.76,210.92,596.47,Single-ply,SBD,M
Boys,124.74,5,Will Brogdon,Howe,112.85,188.24,124.74,231.33,544.31,Single-ply,SBD,M
Boys,124.74,6,Kasey Misenheimer,Whitesboro,118.75,215.46,117.93,208.65,542.04,Single-ply,SBD,M
Boys,124.74,7,Brendan Eades,Leonard,112.85,151.95,97.52,176.9,426.38,Single-ply,SBD,M
Boys,124.74,8,Tanner Edwards,Paradise,110.86,170.1,106.59,136.08,412.77,Single-ply,SBD,M
Boys,124.74,9,Jacob Poole,Ponder,122.47,117.93,63.5,117.93,299.37,Single-ply,SBD,M
Boys,124.74,DQ,Jordan Mitchell,Krum,122.29,,,,,Single-ply,SBD,M
Boys,124.74,DQ,Esteban Martinez,Krum,113.76,,,,,Single-ply,SBD,M
Boys,124.74,DQ,Logan Smithson,Callisburg,116.94,,,,,Single-ply,SBD,M
Boys,124.74,DQ,Dj Briscoe,Sherman,115.39,,,,,Single-ply,SBD,M
Boys,124.74+,1,Jacob Barton,Callisburg,132.72,278.96,215.46,260.82,755.23,Single-ply,SBD,M
Boys,124.74+,2,Ethan Watson,Bonham,126.1,258.55,158.76,226.8,644.1,Single-ply,SBD,M
Boys,124.74+,3,Kaleb Espinoza,Howe,159.03,244.94,136.08,235.87,616.89,Single-ply,SBD,M
Boys,124.74+,4,Cameron Adkins,Leonard,126.46,213.19,138.35,219.99,571.53,Single-ply,SBD,M
Boys,124.74+,5,Connor Mayes,Van Alstyne,151.95,190.51,163.29,197.31,551.11,Single-ply,SBD,M
Boys,124.74+,DQ,Caleb Mitcheson,Whitesboro,127.19,,,,,Single-ply,SBD,M
Boys,124.74+,DQ,Alex Mayes,Van Alstyne,128.64,,,,,Single-ply,SBD,M
Boys,124.74+,DQ,Jonathan Torres,Sherman,125.55,,,,,Single-ply,SBD,M
Boys,124.74+,DQ,Enoch Johnson,Sherman,126.19,,,,,Single-ply,SBD,M
Boys,124.74+,DQ,Rig Benavidez,Pilot Point,143.79,215.46,,,,Single-ply,SBD,M
Boys,124.74+,DQ,Trey Sewell,Bonham,126.37,188.24,104.33,,,Single-ply,SBD,M
Boys,124.74+,DQ,Garrett Smith,Callisburg,137.8,,,,,Single-ply,SBD,M
Boys,124.74+,DQ,Matt Herrera,Celina,146.24,,,,,Single-ply,SBD,M
Boys,124.74+,DQ,Sergio Flores,Howe,127.82,,,,,Single-ply,SBD,M
Boys,,NS,Jared Endres,Little Elm,,,,,,Single-ply,SBD,M
