Division,WeightClassKg,Place,Name,Team,BodyweightKg,Best3SquatKg,Best3BenchKg,Best3DeadliftKg,TotalKg,Equipment,Event,Sex
Boys,51.71,1,James Ramsey,Pottsboro,51.17,136.08,61.23,127.01,324.32,Single-ply,SBD,M
Boys,51.71,2,Avery Miller #2,Denison,49.53,102.06,68.04,140.61,310.71,Single-ply,SBD,M
Boys,51.71,3,Braxton Barneck,Plano,48.26,102.06,65.77,127.01,294.84,Single-ply,SBD,M
Boys,51.71,4,Antron Nixon,Everman,45,102.06,49.9,106.59,258.55,Single-ply,SBD,M
Boys,51.71,5,Chasmon Davis,Everman,45.9,92.99,49.9,108.86,251.74,Single-ply,SBD,M
Boys,51.71,6,Jimmy Rollins,Van Alstyne,48.17,86.18,43.09,106.59,235.87,Single-ply,SBD,M
Boys,51.71,7,Coleton Beathard,Pilot Point,51.62,86.18,38.56,102.06,226.8,Single-ply,SBD,M
Boys,51.71,8,Bryar Skelton,Pilot Point,45.45,77.11,40.82,90.72,208.65,Single-ply,SBD,M
Boys,51.71,9,Jesus Garcia #6,Plano,41.19,74.84,38.56,79.38,192.78,Single-ply,SBD,M
Boys,51.71,10,Jerad Larra,Prosper,44.04,54.43,34.02,74.84,163.29,Single-ply,SBD,M
Boys,55.79,1,Mario Giron,Pilot Point,55.52,174.63,102.06,158.76,435.45,Single-ply,SBD,M
Boys,55.79,2,Darrian Butler,Denison,53.43,151.95,77.11,167.83,396.89,Single-ply,SBD,M
Boys,55.79,3,Jeremy Cuellar,Denison,52.8,127.01,92.99,172.37,392.36,Single-ply,SBD,M
Boys,55.79,4,Brady Macaulay,Everman,54.98,136.08,72.57,181.44,390.09,Single-ply,SBD,M
Boys,55.79,5,Kevin Weiss,Plano,53.89,142.88,81.65,145.15,369.68,Single-ply,SBD,M
Boys,55.79,6,Travis Bishop,Blue Ridge,55.52,129.27,83.91,151.95,365.14,Single-ply,SBD,M
Boys,55.79,7,Preston Booker,Honey Grove,53.34,136.08,63.5,142.88,342.46,Single-ply,SBD,M
Boys,55.79,8,Jorge Morales,Celina,55.16,124.74,83.91,133.81,342.46,Single-ply,SBD,M
Boys,55.79,9,Chase Barnett,Howe,55.79,129.27,61.23,145.15,335.66,Single-ply,SBD,M
Boys,55.79,10,Lance Jones,Van Alstyne,54.88,113.4,61.23,142.88,317.51,Single-ply,SBD,M
Boys,55.79,11,Josh Brinkley,Muenster,53.52,127.01,58.97,129.27,315.25,Single-ply,SBD,M
Boys,55.79,12,Finlee Rudicile,Farmersville,53.25,108.86,79.38,122.47,310.71,Single-ply,SBD,M
Boys,55.79,13,Perry Simpson,Melissa,54.88,113.4,61.23,124.74,299.37,Single-ply,SBD,M
Boys,55.79,14,Manuel Labrada,Whitesboro,55.16,111.13,54.43,120.2,285.76,Single-ply,SBD,M
Boys,55.79,15,Colby Connelly,Honey Grove,54.79,99.79,58.97,115.67,274.42,Single-ply,SBD,M
Boys,59.87,1,Daylon Jackson,Everman,57.61,183.7,97.52,190.51,471.74,Single-ply,SBD,M
Boys,59.87,2,Luke Kirkbride,Denison,58.15,151.95,86.18,167.83,405.97,Single-ply,SBD,M
Boys,59.87,3,Aaron Nelson,Honey Grove,58.88,145.15,81.65,172.37,399.16,Single-ply,SBD,M
Boys,59.87,4,Kyle Humphries,Sherman,58.88,145.15,108.86,142.88,396.89,Single-ply,SBD,M
Boys,59.87,5,Adam Cunningham,Pottsboro,59.42,158.76,90.72,147.42,396.89,Single-ply,SBD,M
Boys,59.87,6,Enrique Colmenero,Pilot Point,59.87,136.08,68.04,161.03,365.14,Single-ply,SBD,M
Boys,59.87,7,Joe Olvera,Celina,59.42,115.67,95.25,138.35,349.27,Single-ply,SBD,M
Boys,59.87,8,Dylan McElroy,Honey Grove,59.69,138.35,68.04,142.88,349.27,Single-ply,SBD,M
Boys,59.87,9,Josh Hathorn,Melissa,59.42,113.4,74.84,147.42,335.66,Single-ply,SBD,M
Boys,59.87,10,Gage Ahrens,Prosper,58.88,102.06,54.43,129.27,285.76,Single-ply,SBD,M
Boys,59.87,11,Dylan Shawver,Little Elm,59.38,99.79,70.31,113.4,283.5,Single-ply,SBD,M
Boys,59.87,12,Colby Metzler,Lindsay,56.15,102.06,54.43,113.4,269.89,Single-ply,SBD,M
Boys,59.87,DQ,Omar Villegas,Melissa,59.06,,,,,Single-ply,SBD,M
Boys,59.87,DQ,Josh Chaires,Melissa,59.69,136.08,72.57,,,Single-ply,SBD,M
Boys,59.87,DQ,Zach Pruitt,Callisburg,57.7,,,,,Single-ply,SBD,M
Boys,67.13,1,Wilson Kirkbride,Denison,60.51,181.44,102.06,208.65,492.15,Single-ply,SBD,M
Boys,67.13,2,Jeremiah Devereaux,Pilot Point,66.59,163.29,106.59,197.31,467.2,Single-ply,SBD,M
Boys,67.13,3,Rytwann Lee,Everman,65.5,176.9,90.72,197.31,464.93,Single-ply,SBD,M
Boys,67.13,4,David Colmenero,Pilot Point,66.86,165.56,83.91,197.31,446.79,Single-ply,SBD,M
Boys,67.13,5,James Cyr,Whitewright,62.69,147.42,97.52,165.56,410.5,Single-ply,SBD,M
Boys,67.13,6,Daelon Warren-Fruge,Little Elm,66.68,147.42,92.99,165.56,405.97,Single-ply,SBD,M
Boys,67.13,7,Diego Martinez,Pilot Point,65.14,158.76,86.18,158.76,403.7,Single-ply,SBD,M
Boys,67.13,8,Myles Knudsen,Honey Grove,65.59,149.69,74.84,170.1,394.63,Single-ply,SBD,M
Boys,67.13,9,Eddie Ramirez,Blue Ridge,65.68,149.69,74.84,158.76,383.29,Single-ply,SBD,M
Boys,67.13,10,Jaxson Rudicile,Farmersville,65.86,136.08,97.52,147.42,381.02,Single-ply,SBD,M
Boys,67.13,11,Kevin Romero,Sherman,66.95,120.2,88.45,151.95,360.61,Single-ply,SBD,M
Boys,67.13,12,Jackson Haines,Prosper,62.69,129.27,81.65,145.15,356.07,Single-ply,SBD,M
Boys,67.13,13,Parker Holman,Celina,66.13,136.08,61.23,142.88,340.19,Single-ply,SBD,M
Boys,67.13,14,Brady Clifton,Wolfe City,66.68,122.47,95.25,122.47,340.19,Single-ply,SBD,M
Boys,67.13,15,Alek Fisher,Farmersville,63.05,117.93,72.57,138.35,328.85,Single-ply,SBD,M
Boys,67.13,16,Kenny Campbell,Honey Grove,66.95,124.74,63.5,138.35,326.59,Single-ply,SBD,M
Boys,67.13,17,Eli Mosby,Van Alstyne,60.24,113.4,68.04,142.88,324.32,Single-ply,SBD,M
Boys,67.13,18,Thomas Arguello,Wolfe City,65.5,115.67,74.84,117.93,308.44,Single-ply,SBD,M
Boys,67.13,DQ,Shaun Hudson,Callisburg,64.95,183.7,104.33,195.04,,Single-ply,SBD,M
Boys,74.84,1,Max Carlile,Plano,73.94,199.58,127.01,208.65,535.24,Single-ply,SBD,M
Boys,74.84,2,Michael Wallace,Sherman,74.21,192.78,111.13,199.58,503.49,Single-ply,SBD,M
Boys,74.84,3,DeVante Clayton,Sherman,74.48,188.24,115.67,195.04,498.95,Single-ply,SBD,M
Boys,74.84,4,Joseph Murrell,Little Elm,74.03,181.44,115.67,190.51,487.61,Single-ply,SBD,M
Boys,74.84,5,Jaden Matthews,Howe,73.57,208.65,99.79,174.63,483.08,Single-ply,SBD,M
Boys,74.84,6,Joseph Brennan,Howe,74.3,188.24,104.33,181.44,474,Single-ply,SBD,M
Boys,74.84,7,Devon Dotson,Little Elm,68.49,154.22,90.72,208.65,453.59,Single-ply,SBD,M
Boys,74.84,8,Robert Arqueros,Farmersville,70.67,136.08,102.06,181.44,419.57,Single-ply,SBD,M
Boys,74.84,9,Connor Glass,Sadler S & S Cons,68.76,147.42,90.72,176.9,415.04,Single-ply,SBD,M
Boys,74.84,10,Rafael Llamas,Celina,73.57,138.35,106.59,161.03,405.97,Single-ply,SBD,M
Boys,74.84,11,Caden Hayes,Melissa,73.12,154.22,77.11,154.22,385.55,Single-ply,SBD,M
Boys,74.84,12,Hunter McCoy,Farmersville,68.95,145.15,79.38,158.76,383.29,Single-ply,SBD,M
Boys,74.84,13,Bryce Jurca,Blue Ridge,71.21,142.88,83.91,156.49,383.29,Single-ply,SBD,M
Boys,74.84,14,David Guillen,Wolfe City,71.12,142.88,83.91,133.81,360.61,Single-ply,SBD,M
Boys,74.84,15,Connor Smith #4,Sadler S & S Cons,69.22,129.27,79.38,142.88,351.53,Single-ply,SBD,M
Boys,74.84,16,Coby Barnes,Wolfe City,73.62,142.88,77.11,129.27,349.27,Single-ply,SBD,M
Boys,74.84,17,Christian Olowokere,Celina,69.31,117.93,74.84,142.88,335.66,Single-ply,SBD,M
Boys,74.84,18,Tony Karleskint,Tom Bean,67.68,129.27,61.23,140.61,331.12,Single-ply,SBD,M
Boys,74.84,19,Nathan Hacker,Muenster,74.75,99.79,63.5,131.54,294.84,Single-ply,SBD,M
Boys,74.84,DQ,Brock Braley,Honey Grove,70.31,117.93,58.97,,,Single-ply,SBD,M
Boys,74.84,DQ,Imanol Gamez,Honey Grove,70.31,124.74,58.97,,,Single-ply,SBD,M
Boys,82.1,1,Tre Lyday,Denison,81.92,208.65,142.88,238.14,589.67,Single-ply,SBD,M
Boys,82.1,2,Brian Aguilar,Everman,79.74,215.46,108.86,238.14,562.45,Single-ply,SBD,M
Boys,82.1,3,Michael Walker #4,Little Elm,78.56,183.7,129.27,231.33,544.31,Single-ply,SBD,M
Boys,82.1,4,Michael Hymel,Howe,80.01,204.12,124.74,215.46,544.31,Single-ply,SBD,M
Boys,82.1,5,Gavin Clark,Whitewright,77.93,190.51,136.08,197.31,523.9,Single-ply,SBD,M
Boys,82.1,6,Colt Gallaway,Pilot Point,77.38,181.44,136.08,204.12,521.63,Single-ply,SBD,M
Boys,82.1,7,Calvin Corbett,Honey Grove,77.56,190.51,99.79,222.26,512.56,Single-ply,SBD,M
Boys,82.1,8,Payton Wallace,Melissa,79.65,190.51,117.93,190.51,498.95,Single-ply,SBD,M
Boys,82.1,9,Trevor Coglon,Bells,76.38,165.56,124.74,192.78,483.08,Single-ply,SBD,M
Boys,82.1,10,Sam Snyder,Celina,81.56,170.1,108.86,181.44,460.4,Single-ply,SBD,M
Boys,82.1,11,Cole Thompson,Little Elm,81.1,174.63,113.4,170.1,458.13,Single-ply,SBD,M
Boys,82.1,12,Jesus Duran,Farmersville,78.93,172.37,90.72,183.7,446.79,Single-ply,SBD,M
Boys,82.1,13,Micah Henson,Pilot Point,76.84,154.22,90.72,195.04,439.98,Single-ply,SBD,M
Boys,82.1,14,Zane Ablett,Van Alstyne,81.1,158.76,92.99,183.7,435.45,Single-ply,SBD,M
Boys,82.1,15,Ethan Taylor,Prosper,78.47,163.29,92.99,165.56,421.84,Single-ply,SBD,M
Boys,82.1,16,Trenton Gilmore,Pottsboro,81.19,163.29,81.65,161.03,405.97,Single-ply,SBD,M
Boys,82.1,17,Kendrick McAdams,Howe,79.83,149.69,68.04,176.9,394.63,Single-ply,SBD,M
Boys,82.1,18,Markos Morales,Whitesboro,78.29,136.08,83.91,165.56,385.55,Single-ply,SBD,M
Boys,82.1,19,Alex Esparza,Pottsboro,76.48,136.08,56.7,147.42,340.19,Single-ply,SBD,M
Boys,82.1,DQ,Billy Webb,Wolfe City,79.65,172.37,,,,Single-ply,SBD,M
Boys,82.1,DQ,Bailey McCoy,Muenster,76.84,174.63,,,,Single-ply,SBD,M
Boys,89.81,1,Roy Goins,Little Elm,86.55,226.8,122.47,226.8,576.06,Single-ply,SBD,M
Boys,89.81,2,Diego Puga,Pilot Point,87.27,190.51,133.81,226.8,551.11,Single-ply,SBD,M
Boys,89.81,3,Brandon Murphy,Whitesboro,86.55,217.72,127.01,192.78,537.51,Single-ply,SBD,M
Boys,89.81,4,John Cooper,Whitewright,88.09,197.31,104.33,233.6,535.24,Single-ply,SBD,M
Boys,89.81,5,Travis Williams,Wolfe City,88.27,204.12,120.2,204.12,528.44,Single-ply,SBD,M
Boys,89.81,6,Antonio Puga,Pilot Point,84.55,192.78,129.27,204.12,526.17,Single-ply,SBD,M
Boys,89.81,7,Hunter Bigelow,Denison,88.81,195.04,120.2,204.12,519.36,Single-ply,SBD,M
Boys,89.81,8,Ja'Bray Young,Melissa,84.01,204.12,117.93,195.04,517.1,Single-ply,SBD,M
Boys,89.81,9,Breelyn Armstrong,Melissa,88.36,219.99,106.59,174.63,501.22,Single-ply,SBD,M
Boys,89.81,10,Logan Pagel,Muenster,84.73,190.51,111.13,192.78,494.42,Single-ply,SBD,M
Boys,89.81,11,Ian Murphy,Prosper,84.19,190.51,117.93,170.1,478.54,Single-ply,SBD,M
Boys,89.81,12,Dylan Robertson,Pottsboro,86.36,188.24,111.13,172.37,471.74,Single-ply,SBD,M
Boys,89.81,13,Tom Davis #2,Muenster,83.55,183.7,90.72,172.37,446.79,Single-ply,SBD,M
Boys,89.81,14,Jose Mata,Callisburg,88.36,179.17,90.72,167.83,437.72,Single-ply,SBD,M
Boys,89.81,15,Kyle Gray,Pottsboro,88.09,163.29,90.72,181.44,435.45,Single-ply,SBD,M
Boys,89.81,16,Brandon Hubert,Pottsboro,88.45,161.03,88.45,181.44,430.91,Single-ply,SBD,M
Boys,89.81,17,Roberto Vasquez,Honey Grove,89.72,165.56,77.11,181.44,424.11,Single-ply,SBD,M
Boys,89.81,18,David Gamez,Honey Grove,85.37,158.76,102.06,158.76,419.57,Single-ply,SBD,M
Boys,89.81,19,Brooks Coffman,Prosper,87.91,142.88,102.06,161.03,405.97,Single-ply,SBD,M
Boys,89.81,20,Seth Baucum,Callisburg,82.19,142.88,70.31,183.7,396.89,Single-ply,SBD,M
Boys,89.81,21,Dane Huchton,Muenster,84.73,142.88,86.18,147.42,376.48,Single-ply,SBD,M
Boys,89.81,22,Ian George,Callisburg,85.37,136.08,65.77,149.69,351.53,Single-ply,SBD,M
Boys,89.81,23,James Hirons,Van Alstyne,88.99,127.01,74.84,149.69,351.53,Single-ply,SBD,M
Boys,89.81,24,Cameron Norwood,Honey Grove,87.54,129.27,79.38,136.08,344.73,Single-ply,SBD,M
Boys,89.81,25,John Cecil,Bells,87.18,113.4,77.11,124.74,315.25,Single-ply,SBD,M
Boys,89.81,26,Talon Dunn,Van Alstyne,84.55,113.4,61.23,127.01,301.64,Single-ply,SBD,M
Boys,89.81,DQ,Danny Banker,Honey Grove,83.1,,,,,Single-ply,SBD,M
Boys,99.79,1,Zach Helton,Plano,93.98,240.4,115.67,249.48,605.55,Single-ply,SBD,M
Boys,99.79,2,Jaylon Sparks,Everman,96.07,226.8,142.88,219.99,589.67,Single-ply,SBD,M
Boys,99.79,3,Malyk Newsome,Everman,99.79,204.12,127.01,226.8,557.92,Single-ply,SBD,M
Boys,99.79,4,Andy Moreno,Plano,97.43,215.46,154.22,181.44,551.11,Single-ply,SBD,M
Boys,99.79,5,Marsalis Upshaw,Plano,92.71,215.46,136.08,195.04,546.58,Single-ply,SBD,M
Boys,99.79,6,Sam Salas,Everman,98.97,204.12,113.4,215.46,532.97,Single-ply,SBD,M
Boys,99.79,7,Gavin Ritchie,Van Alstyne,93.8,206.38,104.33,188.24,498.95,Single-ply,SBD,M
Boys,99.79,8,Taylor Juarez-Conner,Honey Grove,94.48,206.38,102.06,185.97,494.42,Single-ply,SBD,M
Boys,99.79,9,Brody Wiggins,Blue Ridge,95.89,183.7,127.01,183.7,494.42,Single-ply,SBD,M
Boys,99.79,10,Colby Hammond,Callisburg,95.89,190.51,97.52,204.12,492.15,Single-ply,SBD,M
Boys,99.79,11,Tyler Grisham,Howe,95.35,163.29,142.88,183.7,489.88,Single-ply,SBD,M
Boys,99.79,12,Tyson Owen,Melissa,93.53,215.46,106.59,165.56,487.61,Single-ply,SBD,M
Boys,99.79,13,Chris Garrison,Howe,98.25,181.44,124.74,172.37,478.54,Single-ply,SBD,M
Boys,99.79,14,Eric Fisk,Wolfe City,94.17,185.97,115.67,174.63,476.27,Single-ply,SBD,M
Boys,99.79,15,Xhavhiaer Ball,Whitewright,97.52,158.76,108.86,208.65,476.27,Single-ply,SBD,M
Boys,99.79,16,Tanner Young,Whitesboro,99.43,188.24,120.2,167.83,476.27,Single-ply,SBD,M
Boys,99.79,17,Jarrett Ryon,Bells,90.99,176.9,127.01,170.1,474,Single-ply,SBD,M
Boys,99.79,18,Kade McCarty,Tom Bean,99.79,185.97,92.99,190.51,469.47,Single-ply,SBD,M
Boys,99.79,19,Jonathan Padilla,Celina,95.53,170.1,120.2,176.9,467.2,Single-ply,SBD,M
Boys,99.79,20,Junior Tekodo,Little Elm,98.11,174.63,113.4,174.63,462.66,Single-ply,SBD,M
Boys,99.79,21,Tanner Chambers,Callisburg,90.81,174.63,111.13,174.63,460.4,Single-ply,SBD,M
Boys,99.79,22,Austin Pfeifer,Prosper,99.43,185.97,111.13,161.03,458.13,Single-ply,SBD,M
Boys,99.79,23,Jacob Howell,Howe,98.97,172.37,102.06,181.44,455.86,Single-ply,SBD,M
Boys,99.79,24,Drew Edwards,Pottsboro,93.17,170.1,92.99,185.97,449.06,Single-ply,SBD,M
Boys,99.79,25,Nathan Duffee,Howe,96.98,167.83,97.52,181.44,446.79,Single-ply,SBD,M
Boys,99.79,26,Maxwell Nazarko,Van Alstyne,93.08,156.49,90.72,165.56,412.77,Single-ply,SBD,M
Boys,99.79,27,Jamar Person,Honey Grove,95.57,154.22,70.31,185.97,410.5,Single-ply,SBD,M
Boys,99.79,28,Eric Nichols,Van Alstyne,92.8,170.1,127.01,111.13,408.23,Single-ply,SBD,M
Boys,99.79,29,Angel Medina,Bells,94.48,151.95,99.79,154.22,405.97,Single-ply,SBD,M
Boys,99.79,30,Jaxon Cantu,Tom Bean,90.08,149.69,92.99,158.76,401.43,Single-ply,SBD,M
Boys,99.79,31,Dawson Maxwell,Van Alstyne,97.61,136.08,74.84,138.35,349.27,Single-ply,SBD,M
Boys,109.77,1,Jacob Taylor,Bells,109.77,226.8,149.69,235.87,612.35,Single-ply,SBD,M
Boys,109.77,2,Nathan Omayebu,Sherman,106.05,242.67,145.15,222.26,610.08,Single-ply,SBD,M
Boys,109.77,3,Alejandro Rangel,Celina,108.23,249.48,131.54,226.8,607.81,Single-ply,SBD,M
Boys,109.77,4,Ian Enderby,Callisburg,106.96,226.8,147.42,188.24,562.45,Single-ply,SBD,M
Boys,109.77,5,Daniel Hernandez,Everman,106.32,204.12,120.2,204.12,528.44,Single-ply,SBD,M
Boys,109.77,6,Jeral Steward,Everman,106.59,181.44,122.47,204.12,508.02,Single-ply,SBD,M
Boys,109.77,7,Alec Narro,Tom Bean,107.41,197.31,124.74,174.63,496.68,Single-ply,SBD,M
Boys,109.77,8,Garrett Holcombe,Denison,107.59,188.24,136.08,158.76,483.08,Single-ply,SBD,M
Boys,109.77,9,Osvaldo Dela Rosa,Denison,107.5,181.44,113.4,181.44,476.27,Single-ply,SBD,M
Boys,109.77,10,Jason Purefoy,Little Elm,100.06,179.17,113.4,181.44,474,Single-ply,SBD,M
Boys,109.77,11,Ben Kopenski,Prosper,108.05,181.44,106.59,183.7,471.74,Single-ply,SBD,M
Boys,109.77,12,Casey Pounds,Lindsay,103.15,181.44,90.72,170.1,442.25,Single-ply,SBD,M
Boys,109.77,13,Victor Esparza,Honey Grove,104.92,161.03,86.18,179.17,426.38,Single-ply,SBD,M
Boys,109.77,14,Sawyer Callies,Van Alstyne,107.05,161.03,86.18,170.1,417.3,Single-ply,SBD,M
Boys,109.77,15,Daltton Wilcox,Little Elm,100.06,156.49,97.52,149.69,403.7,Single-ply,SBD,M
Boys,109.77,16,Brian Blackwell,Melissa,106.59,158.76,83.91,154.22,396.89,Single-ply,SBD,M
Boys,109.77,17,Jacob Batson,Farmersville,107.05,142.88,83.91,163.29,390.09,Single-ply,SBD,M
Boys,109.77,18,Canyon Rohrer,Callisburg,100.43,124.74,70.31,163.29,358.34,Single-ply,SBD,M
Boys,109.77,19,Brandon Simmons,Tom Bean,101.06,124.74,77.11,151.95,353.8,Single-ply,SBD,M
Boys,109.77,DQ,Parker Stedman,Wolfe City,106.46,133.81,86.18,,,Single-ply,SBD,M
Boys,124.74,1,Kellan Anderson,Wolfe City,119.98,247.21,129.27,226.8,603.28,Single-ply,SBD,M
Boys,124.74,2,Nick Hunter,Plano,116.94,229.06,163.29,208.65,601.01,Single-ply,SBD,M
Boys,124.74,3,Levi Henry,Callisburg,115.21,244.94,133.81,215.46,594.21,Single-ply,SBD,M
Boys,124.74,4,Ty Rockins,Sherman,118.02,226.8,124.74,226.8,578.33,Single-ply,SBD,M
Boys,124.74,5,Haden Hayes,Sherman,117.12,215.46,127.01,233.6,576.06,Single-ply,SBD,M
Boys,124.74,6,Antoine Robison,Denison,117.75,222.26,117.93,226.8,566.99,Single-ply,SBD,M
Boys,124.74,7,Branden Seaberry,Everman,116.94,238.14,113.4,188.24,539.77,Single-ply,SBD,M
Boys,124.74,8,Le Derius Young,Everman,120.2,183.7,142.88,206.38,532.97,Single-ply,SBD,M
Boys,124.74,9,Eddie Veal,Everman,121.65,215.46,127.01,183.7,526.17,Single-ply,SBD,M
Boys,124.74,10,Efren Solorzano,Plano,114.31,204.12,129.27,190.51,523.9,Single-ply,SBD,M
Boys,124.74,11,Rudy Vaquez,Sherman,119.02,190.51,122.47,195.04,508.02,Single-ply,SBD,M
Boys,124.74,12,TK Walton,Sherman,123.1,183.7,124.74,195.04,503.49,Single-ply,SBD,M
Boys,124.74,13,Trevor Duggan,Melissa,118.66,206.38,104.33,190.51,501.22,Single-ply,SBD,M
Boys,124.74,14,Reese Greenwood,Pottsboro,114.67,195.04,102.06,190.51,487.61,Single-ply,SBD,M
Boys,124.74,15,Adam Aldridge,Honey Grove,115.94,183.7,108.86,188.24,480.81,Single-ply,SBD,M
Boys,124.74,16,Quinton Williams,Prosper,122.02,129.27,92.99,142.88,365.14,Single-ply,SBD,M
Boys,124.74,DQ,Nick Vallencilla,Tom Bean,121.74,,,,,Single-ply,SBD,M
Boys,124.74,DQ,Kevin Johnson #5,Plano,113.94,,,,,Single-ply,SBD,M
Boys,124.74+,1,Josh Schnitker,Sherman,144.15,265.35,170.1,238.14,673.58,Single-ply,SBD,M
Boys,124.74+,2,Damon Lippert,Sherman,140.8,249.48,170.1,215.46,635.03,Single-ply,SBD,M
Boys,124.74+,3,Dominic Little,Whitewright,133.27,272.16,156.49,204.12,632.76,Single-ply,SBD,M
Boys,124.74+,4,Kayl Powers,Collinsville,143.43,226.8,136.08,260.82,623.69,Single-ply,SBD,M
Boys,124.74+,5,Cruz Tobar,Sherman,168.65,219.99,138.35,192.78,551.11,Single-ply,SBD,M
Boys,124.74+,6,Jadan Forbes,Denison,148.51,213.19,113.4,208.65,535.24,Single-ply,SBD,M
Boys,124.74+,7,Mason McCall,Pottsboro,134.81,217.72,124.74,190.51,532.97,Single-ply,SBD,M
Boys,124.74+,8,Seth Maynard,Little Elm,138.21,231.33,117.93,181.44,530.7,Single-ply,SBD,M
Boys,124.74+,9,Koby Williams,Pottsboro,131,161.03,108.86,176.9,446.79,Single-ply,SBD,M
